[gd_resource type="EditorSettings" format=2]

[resource]
interface/editor/code_font_size = 17.0
interface/editor/code_font = "/usr/share/fonts/adobe-source-code-pro/SourceCodePro-Regular.otf"
interface/editor/dim_amount = 0.6
interface/editor/dim_transition_time = 0.08
interface/theme/preset = "Solarized (Dark)"
interface/theme/base_color = Color( 0.027451, 0.211765, 0.258824, 1 )
interface/theme/accent_color = Color( 0.14902, 0.545098, 0.823529, 1 )
interface/theme/contrast = 0.23
interface/theme/highlight_tabs = true
filesystem/file_dialog/show_hidden_files = true
text_editor/theme/line_spacing = 4
text_editor/highlighting/symbol_color = Color( 0.670588, 0.786275, 1, 1 )
text_editor/highlighting/keyword_color = Color( 1, 0.443137, 0.521569, 1 )
text_editor/highlighting/base_type_color = Color( 0.258824, 1, 0.760784, 1 )
text_editor/highlighting/engine_type_color = Color( 0.777647, 1, 0.928235, 1 )
text_editor/highlighting/comment_color = Color( 0.756863, 0.802941, 0.814706, 0.5 )
text_editor/highlighting/string_color = Color( 1, 0.92549, 0.629412, 1 )
text_editor/highlighting/background_color = Color( 0.0179804, 0.138706, 0.169529, 1 )
text_editor/highlighting/completion_background_color = Color( 0.027451, 0.211765, 0.258824, 1 )
text_editor/highlighting/completion_selected_color = Color( 1, 1, 1, 0.07 )
text_editor/highlighting/completion_existing_color = Color( 1, 1, 1, 0.14 )
text_editor/highlighting/completion_scroll_color = Color( 1, 1, 1, 0.07 )
text_editor/highlighting/completion_font_color = Color( 0.756863, 0.802941, 0.814706, 1 )
text_editor/highlighting/text_color = Color( 0.756863, 0.802941, 0.814706, 1 )
text_editor/highlighting/line_number_color = Color( 0.756863, 0.802941, 0.814706, 0.5 )
text_editor/highlighting/safe_line_number_color = Color( 0.756863, 0.963529, 0.814706, 0.75 )
text_editor/highlighting/caret_color = Color( 1, 1, 1, 1 )
text_editor/highlighting/text_selected_color = Color( 0.0148235, 0.114353, 0.139765, 1 )
text_editor/highlighting/selection_color = Color( 0.14902, 0.545098, 0.823529, 0.35 )
text_editor/highlighting/brace_mismatch_color = Color( 1, 0.47, 0.42, 1 )
text_editor/highlighting/current_line_color = Color( 1, 1, 1, 0.07 )
text_editor/highlighting/line_length_guideline_color = Color( 0.027451, 0.211765, 0.258824, 1 )
text_editor/highlighting/word_highlighted_color = Color( 1, 1, 1, 0.07 )
text_editor/highlighting/number_color = Color( 0.629412, 1, 0.880392, 1 )
text_editor/highlighting/function_color = Color( 0.341176, 0.701961, 1, 1 )
text_editor/highlighting/member_variable_color = Color( 0.736471, 0.880784, 1, 1 )
text_editor/highlighting/mark_color = Color( 1, 0.47, 0.42, 0.3 )
text_editor/highlighting/breakpoint_color = Color( 1, 0.47, 0.42, 1 )
text_editor/highlighting/code_folding_color = Color( 1, 1, 1, 0.7 )
text_editor/highlighting/search_result_color = Color( 1, 1, 1, 0.07 )
text_editor/highlighting/search_result_border_color = Color( 1, 1, 1, 0.7 )
text_editor/line_numbers/line_numbers_zero_padded = true
text_editor/cursor/caret_blink_speed = 0.65
editors/2d/bone_color2 = Color( 0.75, 0.75, 0.75, 0.9 )
interface/editor/hidpi_mode = 0
filesystem/directories/default_project_export_path = ""
text_editor/files/maximum_recent_files = 20
docks/scene_tree/draw_relationship_lines = false
docks/scene_tree/relationship_line_color = Color( 0.27451, 0.27451, 0.27451, 1 )
editors/3d/grid_color = Color( 0.501961, 0.501961, 0.501961, 1 )
filesystem/on_save/save_modified_external_resources = true
docks/filesystem/display_mode = 0
docks/property_editor/texture_preview_width = 48
text_editor/help/doc_path = ""
filesystem/import/ask_save_before_reimport = false
filesystem/resources/save_compressed_resources = true
filesystem/resources/auto_reload_modified_images = true
filesystem/import/automatic_reimport_on_sources_changed = true
network/debug/remote_host = "127.0.0.1"
network/debug/remote_port = 6007
text_editor/help/help_title_font_size = 23
text_editor/help/help_font_size = 15
text_editor/help/help_source_font_size = 14
run/output/font_size = 13
asset_library/use_threads = true
export/windows/rcedit = ""
export/windows/wine = ""
export/android/adb = ""
export/android/jarsigner = ""
export/android/debug_keystore = ""
export/android/debug_keystore_user = "androiddebugkey"
export/android/debug_keystore_pass = "android"
export/android/force_system_user = false
export/android/timestamping_authority_url = ""
export/android/shutdown_adb_on_exit = true
interface/scene_tabs/always_show_close_button = false
interface/editor/show_type_icons = false
interface/editor/capitalize_properties = true
interface/editor/disable_inspector_folding = false
filesystem/file_server/port = 6010
filesystem/file_server/password = ""
editors/3d/manipulator_gizmo_size = 80
editors/3d/manipulator_gizmo_opacity = 0.2
debugger/auto_switch_to_remote_scene_tree = true
debugger/remote_scene_tree_refresh_interval = 1.0
debugger/remote_inspect_refresh_interval = 0.2
debugger/profiler_frame_history_size = 600
debugger/profiler_frame_max_functions = 64
text_editor/files/auto_reload_scripts_on_external_change = true
text_editor/files/auto_reload_and_parse_scripts_on_save = true
text_editor/files/open_dominant_script_on_scene_change = true
text_editor/external/use_external_editor = false
text_editor/external/exec_path = "/usr/local/bin/st"
text_editor/open_scripts/script_temperature_enabled = true
text_editor/open_scripts/highlight_current_script = true
text_editor/open_scripts/script_temperature_history_size = 15
text_editor/open_scripts/current_script_background_color = Color( 1, 1, 1, 0.3 )
text_editor/open_scripts/group_help_pages = true
text_editor/open_scripts/sort_scripts_by = 0
text_editor/open_scripts/list_script_names_as = 0
text_editor/external/exec_flags = "-e vim"
text_editor/completion/enable_code_completion_delay = true
text_editor/completion/code_complete_delay = 0.3
editors/grid_map/preview_size = 64
editors/tile_map/preview_size = 64
editors/tile_map/palette_item_hseparation = 8
editors/tile_map/show_tile_names = true
editors/tile_map/show_tile_ids = true
editors/tile_map/sort_tiles_by_name = true
editors/tile_map/bucket_fill_preview = true
editors/tile_map/show_tile_info_on_hover = true
editors/tile_map/palette_min_width = 80
editors/grid_map/palette_min_width = 230
_::home::nathaniel::Programs::godot::fps-demo/_recent_scenes = PoolStringArray( "World.tscn" )
editors/3d_gizmos/gizmo_colors/light = Color( 1, 1, 0.2, 1 )
editors/3d_gizmos/gizmo_colors/stream_player_3d = Color( 0.4, 0.8, 1, 1 )
editors/3d_gizmos/gizmo_colors/camera = Color( 0.8, 0.4, 0.8, 1 )
editors/3d_gizmos/gizmo_colors/skeleton = Color( 1, 0.8, 0.4, 1 )
editors/3d_gizmos/gizmo_colors/visibility_notifier = Color( 0.8, 0.5, 0.7, 1 )
editors/3d_gizmos/gizmo_colors/particles = Color( 0.8, 0.7, 0.4, 1 )
editors/3d_gizmos/gizmo_colors/reflection_probe = Color( 0.6, 1, 0.5, 1 )
editors/3d_gizmos/gizmo_colors/gi_probe = Color( 0.5, 1, 0.6, 1 )
editors/3d_gizmos/gizmo_colors/baked_indirect_light = Color( 0.5, 0.6, 1, 1 )
editors/3d_gizmos/gizmo_colors/shape = Color( 0.5, 0.7, 1, 1 )
editors/3d_gizmos/gizmo_colors/joint = Color( 0.5, 0.8, 1, 1 )
editors/3d_gizmos/gizmo_colors/joint_body_a = Color( 0.6, 0.8, 1, 1 )
editors/3d_gizmos/gizmo_colors/joint_body_b = Color( 0.6, 0.9, 1, 1 )
editors/3d_gizmos/gizmo_colors/navigation_edge = Color( 0.5, 1, 1, 1 )
editors/3d_gizmos/gizmo_colors/navigation_edge_disabled = Color( 0.7, 0.7, 0.7, 1 )
editors/3d_gizmos/gizmo_colors/navigation_solid = Color( 0.5, 1, 1, 0.4 )
editors/3d_gizmos/gizmo_colors/navigation_solid_disabled = Color( 0.7, 0.7, 0.7, 0.4 )
editors/3d_gizmos/gizmo_colors/instanced = Color( 0.7, 0.7, 0.7, 0.5 )
_::home::nathaniel::Downloads::no-girlz-allowed/_recent_scenes = PoolStringArray( "MainMenu.tscn", "levels/Level .tscn", "levels/Level 2.tscn", "level_parts/PortalPlatform.tscn", "levels/Level 1.tscn", "MainGameRoot.tscn", "level_parts/StaticPlatform.tscn", "level_parts/MovingPlatform.tscn", "level_parts/TileMap.tscn", "levels/LevelTemplate.tscn" )
interface/scene_tabs/restore_scenes_on_load = false
interface/dialogs/create_new_node_bounds = Rect2( 180, 110, 1080, 657 )
text_editor/help/sort_functions_alphabetically = true
interface/dialogs/project_settings_bounds = Rect2( 180, 110, 1080, 657 )
interface/dialogs/editor_settings_bounds = Rect2( 216, 131, 1008, 612 )
projects/::home::nathaniel::Programs::the-fifth-island::Game = "/home/nathaniel/Programs/the-fifth-island/Game"
_::home::nathaniel::Programs::the-fifth-island::Game/_recent_scenes = PoolStringArray( "Overworld/Overworld.tscn", "Battle/BattleRoot.tscn", "TitleScreen/Title Screen.tscn", "Battle/Animation Test.tscn", "Support Scenes/SavedData.tscn" )
mono/builds/build_tool = 0
mono/assembly_watch_interval_sec = 0.5
mono/editor/show_info_on_start = false
mono/editor/external_editor = 0
network/ssl/editor_ssl_certificates = ""
interface/inspector/capitalize_properties = true
interface/inspector/disable_folding = false
interface/inspector/auto_unfold_foreign_scenes = true
interface/inspector/horizontal_vector2_editing = false
interface/inspector/horizontal_vector_types_editing = true
interface/inspector/open_resources_in_current_inspector = true
interface/inspector/resources_to_open_in_new_inspector = "SpatialMaterial,Script,MeshLibrary,TileSet"
interface/editors/derive_script_globals_by_name = true
interface/editors/show_scene_tree_root_selection = true
_use_favorites_root_selection = false
editors/tile_map/editor_side = 1
editors/3d_gizmos/gizmo_colors/path = Color( 0.5, 0.5, 1, 0.8 )
editors/3d_gizmos/gizmo_colors/csg = Color( 0.2, 0.5, 1, 0.1 )
editors/grid_map/editor_side = 1
text_editor/highlighting/gdscript/function_definition_color = Color( 0.00392157, 0.882353, 1, 1 )
text_editor/highlighting/gdscript/node_path_color = Color( 0.392157, 0.756863, 0.352941, 1 )
projects/::home::nathaniel::Programs::TarotSleuth = "/home/nathaniel/Programs/TarotSleuth"
"projects/::home::nathaniel::Programs::Simple Platformer" = "/home/nathaniel/Programs/Simple Platformer"
